…
    ## Rows: 3220 Columns: 6
    ## ── Column specification ────────────────────────────────────────────────────────
    ## Delimiter: ","
    ## chr (5): Geography, Geographic Area Name, Annotation of Estimate!!Total, Mar...
    ## dbl (1): Estimate!!Total
    ## 
    ## ℹ Use `spec()` to retrieve the full column specification for this data.
    ## ℹ Specify the column types or set `show_col_types = FALSE` to quiet this message.

``` r
df_pop
```

    ## # A tibble: 3,220 × 6
    ##    Geography     `Geographic Area Name` `Estimate!!Total` Annotation of Estima…¹
    ##    <chr>         <chr>                              <dbl> <chr>                 
    ##  1 0500000US010… Autauga County, Alaba…             55200 null                  
    ##  2 0500000US010… Baldwin County, Alaba…            208107 null                  
    ##  3 0500000US010… Barbour County, Alaba…             25782 null                  
    ##  4 0500000US010… Bibb County, Alabama               22527 null                  
    ##  5 0500000US010… Blount County, Alabama             57645 null                  
    ##  6 0500000US010… Bullock County, Alaba…             10352 null                  
    ##  7 0500000US010… Butler County, Alabama             20025 null                  
    ##  8 0500000US010… Calhoun County, Alaba…            115098 null                  
    ##  9 0500000US010… Chambers County, Alab…             33826 null                  
    ## 10 0500000US010… Cherokee County, Alab…             25853 null                  
    ## # ℹ 3,210 more rows
    ## # ℹ abbreviated name: ¹​`Annotation of Estimate!!Total`
    ## # ℹ 2 more variables: `Margin of Error!!Total` <chr>,
    ## #   `Annotation of Margin of Error!!Total` <chr>
…
### **q3** Process the `id` column of `df_pop` to create a `fips` column.

``` r
## TASK: Create a `fips` column by extracting the county code
df_q3 <- df_pop %>% 
  mutate(
    fips = substr(Geography, 10, 14)
    )
df_q3 
```

    ## # A tibble: 3,220 × 7
    ##    Geography     `Geographic Area Name` `Estimate!!Total` Annotation of Estima…¹
    ##    <chr>         <chr>                              <dbl> <chr>                 
    ##  1 0500000US010… Autauga County, Alaba…             55200 null                  
    ##  2 0500000US010… Baldwin County, Alaba…            208107 null                  
    ##  3 0500000US010… Barbour County, Alaba…             25782 null                  
    ##  4 0500000US010… Bibb County, Alabama               22527 null                  
    ##  5 0500000US010… Blount County, Alabama             57645 null                  
    ##  6 0500000US010… Bullock County, Alaba…             10352 null                  
    ##  7 0500000US010… Butler County, Alabama             20025 null                  
    ##  8 0500000US010… Calhoun County, Alaba…            115098 null                  
    ##  9 0500000US010… Chambers County, Alab…             33826 null                  
    ## 10 0500000US010… Cherokee County, Alab…             25853 null                  
    ## # ℹ 3,210 more rows
    ## # ℹ abbreviated name: ¹​`Annotation of Estimate!!Total`
    ## # ℹ 3 more variables: `Margin of Error!!Total` <chr>,
    ## #   `Annotation of Margin of Error!!Total` <chr>, fips <chr>
…
