…
``` r
## TASK: Choose a sample size and generate samples
n <- 500000 # Choose a sample size

df_q1 <- tibble(x = runif(n, min = 0, max = 1)) %>%
  mutate(y = runif(n, min = 0, max = 1), stat = (sqrt(x^2 + y^2) <= 1) * 4)
df_q1
```

    ## # A tibble: 500,000 × 3
    ##         x      y  stat
    ##     <dbl>  <dbl> <dbl>
    ##  1 0.697  0.847      0
    ##  2 0.717  0.823      0
    ##  3 0.899  0.0944     4
    ##  4 0.627  0.615      4
    ##  5 0.912  0.626      0
    ##  6 0.640  0.149      4
    ##  7 0.662  0.180      4
    ##  8 0.103  0.797      4
    ##  9 0.0475 0.516      4
    ## 10 0.252  0.526      4
    ## # … with 499,990 more rows
    ## # ℹ Use `print(n = ...)` to see more rows
…
