…
    ## Rows: 3220 Columns: 6
    ## ── Column specification ────────────────────────────────────────────────────────
    ## Delimiter: ","
    ## chr (5): Geography, Geographic Area Name, Annotation of Estimate!!Total, Mar...
    ## dbl (1): Estimate!!Total
    ## 
    ## ℹ Use `spec()` to retrieve the full column specification for this data.
    ## ℹ Specify the column types or set `show_col_types = FALSE` to quiet this message.

``` r
df_pop
```

    ## # A tibble: 3,220 × 6
    ##    Geography      `Geographic Area Name`   population_…¹ Annot…² Margi…³ Annot…⁴
    ##    <chr>          <chr>                            <dbl> <chr>   <chr>   <chr>  
    ##  1 0500000US01001 Autauga County, Alabama          55200 null    *****   *****  
    ##  2 0500000US01003 Baldwin County, Alabama         208107 null    *****   *****  
    ##  3 0500000US01005 Barbour County, Alabama          25782 null    *****   *****  
    ##  4 0500000US01007 Bibb County, Alabama             22527 null    *****   *****  
    ##  5 0500000US01009 Blount County, Alabama           57645 null    *****   *****  
    ##  6 0500000US01011 Bullock County, Alabama          10352 null    *****   *****  
    ##  7 0500000US01013 Butler County, Alabama           20025 null    *****   *****  
    ##  8 0500000US01015 Calhoun County, Alabama         115098 null    *****   *****  
    ##  9 0500000US01017 Chambers County, Alabama         33826 null    *****   *****  
    ## 10 0500000US01019 Cherokee County, Alabama         25853 null    *****   *****  
    ## # … with 3,210 more rows, and abbreviated variable names ¹​population_estimate,
    ## #   ²​`Annotation of Estimate!!Total`, ³​`Margin of Error!!Total`,
    ## #   ⁴​`Annotation of Margin of Error!!Total`
    ## # ℹ Use `print(n = ...)` to see more rows
…
    ## Rows: 3220 Columns: 483
    ## ── Column specification ────────────────────────────────────────────────────────
    ## Delimiter: ","
    ## chr (306): Geography, Geographic Area Name, Annotation of Margin of Error!!N...
    ## dbl (176): Estimate!!Number!!HOUSEHOLD INCOME BY RACE AND HISPANIC OR LATINO...
    ## lgl   (1): ...483
    ## 
    ## ℹ Use `spec()` to retrieve the full column specification for this data.
    ## ℹ Specify the column types or set `show_col_types = FALSE` to quiet this message.

``` r
df_income
```

    ## # A tibble: 3,220 × 483
    ##    Geography     Geogr…¹ Estim…² Margi…³ Annot…⁴ Annot…⁵ Estim…⁶ Margi…⁷ Annot…⁸
    ##    <chr>         <chr>     <dbl>   <dbl> <chr>   <chr>     <dbl>   <dbl> <chr>  
    ##  1 0500000US010… Autaug…   21115     383 null    null      16585     363 null   
    ##  2 0500000US010… Baldwi…   78622    1183 null    null      69544    1042 null   
    ##  3 0500000US010… Barbou…    9186     280 null    null       4729     211 null   
    ##  4 0500000US010… Bibb C…    6840     321 null    null       5588     346 null   
    ##  5 0500000US010… Blount…   20600     396 null    null      20054     417 null   
    ##  6 0500000US010… Bulloc…    3609     196 null    null        881     119 null   
    ##  7 0500000US010… Butler…    6708     274 null    null       3821     173 null   
    ##  8 0500000US010… Calhou…   45033     683 null    null      33820     559 null   
    ##  9 0500000US010… Chambe…   13516     372 null    null       7953     296 null   
    ## 10 0500000US010… Cherok…   10606     370 null    null       9953     356 null   
    ## # … with 3,210 more rows, 474 more variables:
    ## #   `Annotation of Estimate!!Number!!HOUSEHOLD INCOME BY RACE AND HISPANIC OR LATINO ORIGIN OF HOUSEHOLDER!!Households!!One race--!!White` <chr>,
    ## #   `Estimate!!Number!!HOUSEHOLD INCOME BY RACE AND HISPANIC OR LATINO ORIGIN OF HOUSEHOLDER!!Households!!One race--!!Black or African American` <dbl>,
    ## #   `Annotation of Estimate!!Number!!HOUSEHOLD INCOME BY RACE AND HISPANIC OR LATINO ORIGIN OF HOUSEHOLDER!!Households!!One race--!!Black or African American` <chr>,
    ## #   `Margin of Error!!Number MOE!!HOUSEHOLD INCOME BY RACE AND HISPANIC OR LATINO ORIGIN OF HOUSEHOLDER!!Households!!One race--!!Black or African American` <dbl>,
    ## #   `Annotation of Margin of Error!!Number MOE!!HOUSEHOLD INCOME BY RACE AND HISPANIC OR LATINO ORIGIN OF HOUSEHOLDER!!Households!!One race--!!Black or African American` <chr>,
    ## #   `Estimate!!Number!!HOUSEHOLD INCOME BY RACE AND HISPANIC OR LATINO ORIGIN OF HOUSEHOLDER!!Households!!One race--!!American Indian and Alaska Native` <dbl>, …
    ## # ℹ Use `print(n = ...)` to see more rows, and `colnames()` to see all variable names
…
``` r
  # "Geography", "geographic_area_name", "category", "income_estimate", "income_moe"

df_q3
```

    ## # A tibble: 16,100 × 5
    ##    Geography      geographic_area_name    category          income_est…¹ incom…²
    ##    <chr>          <chr>                   <chr>                    <dbl>   <dbl>
    ##  1 0500000US01001 Autauga County, Alabama 2-person families        64947    6663
    ##  2 0500000US01001 Autauga County, Alabama 3-person families        80172   14181
    ##  3 0500000US01001 Autauga County, Alabama 4-person families        85455   10692
    ##  4 0500000US01001 Autauga County, Alabama 5-person families        88601   20739
    ##  5 0500000US01001 Autauga County, Alabama 6-person families       103787   12387
    ##  6 0500000US01003 Baldwin County, Alabama 2-person families        63975    2297
    ##  7 0500000US01003 Baldwin County, Alabama 3-person families        79390    8851
    ##  8 0500000US01003 Baldwin County, Alabama 4-person families        88458    5199
    ##  9 0500000US01003 Baldwin County, Alabama 5-person families        91259    7011
    ## 10 0500000US01003 Baldwin County, Alabama 6-person families        69609   23175
    ## # … with 16,090 more rows, and abbreviated variable names ¹​income_estimate,
    ## #   ²​income_moe
    ## # ℹ Use `print(n = ...)` to see more rows
…
mean
```

    ## function (x, ...) 
    ## UseMethod("mean")
    ## <bytecode: 0x0000022385911268>
    ## <environment: namespace:base>

``` r
df_q4
```

    ## # A tibble: 16,100 × 9
    ## # Groups:   category [5]
    ##    Geography     geogr…¹ categ…² incom…³ incom…⁴ incom…⁵ incom…⁶ incom…⁷ incom…⁸
    ##    <chr>         <chr>   <chr>     <dbl>   <dbl>   <dbl>   <dbl>   <dbl>   <dbl>
    ##  1 0500000US010… Autaug… 2-pers…   64947    6663   4050.  54514.  75380.  0.0624
    ##  2 0500000US010… Autaug… 3-pers…   80172   14181   8621.  57967. 102377.  0.108 
    ##  3 0500000US010… Autaug… 4-pers…   85455   10692   6500.  68713. 102197.  0.0761
    ##  4 0500000US010… Autaug… 5-pers…   88601   20739  12607.  56127. 121075.  0.142 
    ##  5 0500000US010… Autaug… 6-pers…  103787   12387   7530.  84391. 123183.  0.0726
    ##  6 0500000US010… Baldwi… 2-pers…   63975    2297   1396.  60378.  67572.  0.0218
    ##  7 0500000US010… Baldwi… 3-pers…   79390    8851   5381.  65531.  93249.  0.0678
    ##  8 0500000US010… Baldwi… 4-pers…   88458    5199   3160.  80317.  96599.  0.0357
    ##  9 0500000US010… Baldwi… 5-pers…   91259    7011   4262.  80281. 102237.  0.0467
    ## 10 0500000US010… Baldwi… 6-pers…   69609   23175  14088.  33320. 105898.  0.202 
    ## # … with 16,090 more rows, and abbreviated variable names
    ## #   ¹​geographic_area_name, ²​category, ³​income_estimate, ⁴​income_moe,
    ## #   ⁵​income_SE, ⁶​income_lo, ⁷​income_hi, ⁸​income_CV
    ## # ℹ Use `print(n = ...)` to see more rows
…
